{
  "data": [
    {
      "type": "apps",
      "id": "1234567890",
      "attributes": {
        "name": "Acme Widgets",
        "bundleId": "com.acme.widgets",
        "sku": "ACME-WIDGETS-001",
        "primaryLocale": "en-US",
        "isOrEverWasMadeForKids": false,
        "contentRightsDeclaration": "DOES_NOT_USE_THIRD_PARTY_CONTENT"
      },
      "relationships": {
        "appStoreVersions": {
          "links": {
            "self": "https://api.appstoreconnect.apple.com/v1/apps/1234567890/relationships/appStoreVersions",
            "related": "https://api.appstoreconnect.apple.com/v1/apps/1234567890/appStoreVersions"
          }
        }
      },
      "links": {
        "self": "https://api.appstoreconnect.apple.com/v1/apps/1234567890"
      }
    },
    {
      "type": "apps",
      "id": "9876543210",
      "attributes": {
        "name": "Acme Gadgets",
        "bundleId": "com.acme.gadgets",
        "sku": "ACME-GADGETS-001",
        "primaryLocale": "en-US",
        "isOrEverWasMadeForKids": true
      },
      "links": {
        "self": "https://api.appstoreconnect.apple.com/v1/apps/9876543210"
      }
    }
  ],
  "links": {
    "self": "https://api.appstoreconnect.apple.com/v1/apps?limit=2",
    "next": "https://api.appstoreconnect.apple.com/v1/apps?cursor=CURSOR_PAGE_2&limit=2"
  },
  "meta": {
    "paging": {
      "total": 3,
      "limit": 2
    }
  }
}
